…
``` r
library(dplyr)
library(tidyr)

# #Clean the data in Mr. Trash Wheel Sheet. 
mr_trash_wheel_sheet =
  readxl::read_excel("./data/Trash-Wheel-Collection-Totals-8-6-19.xlsx", range = "A2:N534") %>%
  janitor::clean_names() %>%
  drop_na(dumpster) %>% 
  mutate(sports_balls = round(sports_balls,0))

mr_trash_wheel_sheet
```

    ## # A tibble: 453 × 14
    ##    dumpster month  year date                weight_tons volume_cubic_yards
    ##       <dbl> <chr> <dbl> <dttm>                    <dbl>              <dbl>
    ##  1        1 May    2014 2014-05-16 00:00:00        4.31                 18
    ##  2        2 May    2014 2014-05-16 00:00:00        2.74                 13
    ##  3        3 May    2014 2014-05-16 00:00:00        3.45                 15
    ##  4        4 May    2014 2014-05-17 00:00:00        3.1                  15
    ##  5        5 May    2014 2014-05-17 00:00:00        4.06                 18
    ##  6        6 May    2014 2014-05-20 00:00:00        2.71                 13
    ##  7        7 May    2014 2014-05-21 00:00:00        1.91                  8
    ##  8        8 May    2014 2014-05-28 00:00:00        3.7                  16
    ##  9        9 June   2014 2014-06-05 00:00:00        2.52                 14
    ## 10       10 June   2014 2014-06-11 00:00:00        3.76                 18
    ## # … with 443 more rows, and 8 more variables: plastic_bottles <dbl>,
    ## #   polystyrene <dbl>, cigarette_butts <dbl>, glass_bottles <dbl>,
    ## #   grocery_bags <dbl>, chip_bags <dbl>, sports_balls <dbl>,
    ## #   homes_powered <dbl>
…
precipitation_data_clean = 
  full_join(
    precipitation_data_2018, precipitation_data_2019
  ) %>% 
  mutate(month = month.name[month]) %>% 
  relocate(year, month, total)
```

    ## Joining, by = c("month", "total", "year")

``` r
precipitation_data_clean
```

    ## # A tibble: 24 × 3
    ##     year month     total
    ##    <dbl> <chr>     <dbl>
    ##  1  2018 January    0.94
    ##  2  2018 February   4.8 
    ##  3  2018 March      2.69
    ##  4  2018 April      4.69
    ##  5  2018 May        9.27
    ##  6  2018 June       4.77
    ##  7  2018 July      10.2 
    ##  8  2018 August     6.45
    ##  9  2018 September 10.5 
    ## 10  2018 October    2.12
    ## # … with 14 more rows
…
<!-- -->

    ## Rows: 822 Columns: 9

    ## ── Column specification ────────────────────────────────────────────────────────
    ## Delimiter: ","
    ## dbl  (8): prez_gop, gov_gop, sen_gop, rep_gop, prez_dem, gov_dem, sen_dem, r...
    ## date (1): mon

    ## 
    ## ℹ Use `spec()` to retrieve the full column specification for this data.
    ## ℹ Specify the column types or set `show_col_types = FALSE` to quiet this message.

    ## # A tibble: 822 × 9
    ##    year  month gov_gop sen_gop rep_gop gov_dem sen_dem rep_dem president
    ##    <chr> <chr>   <dbl>   <dbl>   <dbl>   <dbl>   <dbl>   <dbl> <chr>    
    ##  1 1947  Jan        23      51     253      23      45     198 dem      
    ##  2 1947  Feb        23      51     253      23      45     198 dem      
    ##  3 1947  Mar        23      51     253      23      45     198 dem      
    ##  4 1947  Apr        23      51     253      23      45     198 dem      
    ##  5 1947  May        23      51     253      23      45     198 dem      
    ##  6 1947  Jun        23      51     253      23      45     198 dem      
    ##  7 1947  Jul        23      51     253      23      45     198 dem      
    ##  8 1947  Aug        23      51     253      23      45     198 dem      
    ##  9 1947  Sep        23      51     253      23      45     198 dem      
    ## 10 1947  Oct        23      51     253      23      45     198 dem      
    ## # … with 812 more rows

    ## Rows: 787 Columns: 2

    ## ── Column specification ────────────────────────────────────────────────────────
    ## Delimiter: ","
    ## chr (1): date
    ## dbl (1): close

    ## 
    ## ℹ Use `spec()` to retrieve the full column specification for this data.
    ## ℹ Specify the column types or set `show_col_types = FALSE` to quiet this message.

    ## # A tibble: 787 × 3
    ##    year  month close
    ##    <chr> <chr> <dbl>
    ##  1 1950  Apr    18  
    ##  2 1950  Aug    18.4
    ##  3 1950  Dec    20.4
    ##  4 1950  Feb    17.2
    ##  5 1950  Jan    17  
    ##  6 1950  Jul    17.8
    ##  7 1950  Jun    17.7
    ##  8 1950  Mar    17.3
    ##  9 1950  May    18.8
    ## 10 1950  Nov    19.5
    ## # … with 777 more rows

    ## Rows: 68 Columns: 13

    ## ── Column specification ────────────────────────────────────────────────────────
    ## Delimiter: ","
    ## dbl (13): Year, Jan, Feb, Mar, Apr, May, Jun, Jul, Aug, Sep, Oct, Nov, Dec

    ## 
    ## ℹ Use `spec()` to retrieve the full column specification for this data.
    ## ℹ Specify the column types or set `show_col_types = FALSE` to quiet this message.

    ## # A tibble: 816 × 3
    ##    year  month unemployment_data
    ##    <chr> <chr>             <dbl>
    ##  1 1948  Jan                 3.4
    ##  2 1948  Feb                 3.8
    ##  3 1948  Mar                 4  
    ##  4 1948  Apr                 3.9
    ##  5 1948  May                 3.5
    ##  6 1948  Jun                 3.6
    ##  7 1948  Jul                 3.6
    ##  8 1948  Aug                 3.9
    ##  9 1948  Sep                 3.8
    ## 10 1948  Oct                 3.7
    ## # … with 806 more rows

    ## # A tibble: 822 × 11
    ##    year  month gov_gop sen_gop rep_gop gov_dem sen_dem rep_dem president close
    ##    <chr> <chr>   <dbl>   <dbl>   <dbl>   <dbl>   <dbl>   <dbl> <chr>     <dbl>
    ##  1 1947  Jan        23      51     253      23      45     198 dem          NA
    ##  2 1947  Feb        23      51     253      23      45     198 dem          NA
    ##  3 1947  Mar        23      51     253      23      45     198 dem          NA
    ##  4 1947  Apr        23      51     253      23      45     198 dem          NA
    ##  5 1947  May        23      51     253      23      45     198 dem          NA
    ##  6 1947  Jun        23      51     253      23      45     198 dem          NA
    ##  7 1947  Jul        23      51     253      23      45     198 dem          NA
    ##  8 1947  Aug        23      51     253      23      45     198 dem          NA
    ##  9 1947  Sep        23      51     253      23      45     198 dem          NA
    ## 10 1947  Oct        23      51     253      23      45     198 dem          NA
    ## # … with 812 more rows, and 1 more variable: unemployment_data <dbl>
…
The popularity of the name ‘Olivia’ as a female baby over time

``` r
popular_male_baby_names_count = popular_baby_names_base %>% 
  filter(gender == "Male") %>% 
  group_by(childs_first_name) %>%
  summarise(
    total_count = sum(count), 
    rank_avg = mean(rank)
    ) %>% 
  arrange(rank_avg, desc(total_count))
popular_male_baby_names_count
```

    ## # A tibble: 830 × 3
    ##    childs_first_name total_count rank_avg
    ##    <chr>                   <dbl>    <dbl>
    ##  1 Moshe                    1484     4.33
    ##  2 Ethan                    4245     7.83
    ##  3 Jacob                    3994    11.6 
    ##  4 Daniel                   3463    11.6 
    ##  5 Matthew                  3327    14.2 
    ##  6 Liam                     3226    15.1 
    ##  7 Noah                     3231    15.2 
    ##  8 Michael                  3279    15.3 
    ##  9 Aiden                    3155    16.2 
    ## 10 Alexander                3059    17.2 
    ## # … with 820 more rows
…
The popularity of the name ‘Ethan’ as a male baby over time

``` r
popular_baby_names_base
```

    ## # A tibble: 12,181 × 6
    ##    year_of_birth gender ethnicity                  childs_first_name count  rank
    ##            <dbl> <chr>  <chr>                      <chr>             <dbl> <dbl>
    ##  1          2016 Female Asian And Pacific Islander Olivia              172     1
    ##  2          2016 Female Asian And Pacific Islander Chloe               112     2
    ##  3          2016 Female Asian And Pacific Islander Sophia              104     3
    ##  4          2016 Female Asian And Pacific Islander Emily                99     4
    ##  5          2016 Female Asian And Pacific Islander Emma                 99     4
    ##  6          2016 Female Asian And Pacific Islander Mia                  79     5
    ##  7          2016 Female Asian And Pacific Islander Charlotte            59     6
    ##  8          2016 Female Asian And Pacific Islander Sarah                57     7
    ##  9          2016 Female Asian And Pacific Islander Isabella             56     8
    ## 10          2016 Female Asian And Pacific Islander Hannah               56     8
    ## # … with 12,171 more rows
…
